[gd_scene load_steps=3 format=2]

[ext_resource path="res://Core/World/Entity.cs" type="Script" id=1]
[ext_resource path="res://machines/assets/machines.png" type="Texture" id=2]

[node name="void-compressor" type="Node2D"]
script = ExtResource( 1 )
Kind = "machine"
Identifier = "void-compressor"
Category = "compressor"
PortsDeclarationCode = "0 OUT void
2 IN void"

[node name="sprite" type="Sprite" parent="."]
show_behind_parent = true
position = Vector2( 32, 32 )
texture = ExtResource( 2 )
region_enabled = true
region_rect = Rect2( 64, 0, 64, 64 )
